iter	Logloss
0	0.2919386277
1	0.1384400801
2	0.08190164133
3	0.05391217711
4	0.04045562214
5	0.03414807672
6	0.02952234615
7	0.02760939611
8	0.02637700631
9	0.02555951363
10	0.02505264616
11	0.02470243854
12	0.02434014783
13	0.0240271698
14	0.02378174605
15	0.02360032269
16	0.02349863819
17	0.02343847791
18	0.02339047098
19	0.02334346952
20	0.02330400101
21	0.02326869101
22	0.02324164763
23	0.02321018044
24	0.02316218109
25	0.02316218109
26	0.02313318479
27	0.02311947725
28	0.02310288549
29	0.02310269707
30	0.02310255479
31	0.02310255479
32	0.02308782666
33	0.02308782666
34	0.0230438831
35	0.02304382272
36	0.02304382272
37	0.02304378819
38	0.02300398356
39	0.02298682886
40	0.02298676835
41	0.02298673657
42	0.0229867055
43	0.02294375194
44	0.02292585674
45	0.02290071452
46	0.02290063093
47	0.02290063093
48	0.02290052989
49	0.02286665782
50	0.02286664229
51	0.02286660264
52	0.02285102349
53	0.02282255367
54	0.0228225405
55	0.02282249697
56	0.02282249697
57	0.02282241453
58	0.02282239974
59	0.02282237351
60	0.02282235404
61	0.02282231098
62	0.02282230104
63	0.02282227931
64	0.02282211811
65	0.02281616313
66	0.02281616313
67	0.02279337858
68	0.02279321273
69	0.02279321273
70	0.02279321273
71	0.02277572625
72	0.02275654103
73	0.02275651866
74	0.02275633956
75	0.0227419144
76	0.02274189807
77	0.02274187262
78	0.02274161269
79	0.02274161269
80	0.02274161269
81	0.02274155172
82	0.02274151777
83	0.02274148962
84	0.02274145263
85	0.02274143725
86	0.02274139158
87	0.02274136877
88	0.02274131084
89	0.02274130131
90	0.02274128438
91	0.02274128438
92	0.02274128438
93	0.02274127086
94	0.02272776053
95	0.02272772412
96	0.02271011277
97	0.02271009896
98	0.02270995901
99	0.02270994878
100	0.02270987937
101	0.02270984481
102	0.02270983258
103	0.02270982683
104	0.0227098218
105	0.02270981311
106	0.02270980482
107	0.02270976796
108	0.0227097475
109	0.02270972924
110	0.02270972924
111	0.02270972924
112	0.02270972924
113	0.02270970885
114	0.02270969981
115	0.02270969981
116	0.02270968331
117	0.02270967432
118	0.02270964166
119	0.02270964166
120	0.02270963346
121	0.02270962494
122	0.02270962494
123	0.02270961643
124	0.02270960796
125	0.02270960387
126	0.02270959538
127	0.02270957842
128	0.02270956998
129	0.02270956153
130	0.02270955308
131	0.02270954464
132	0.02270953623
133	0.0227095278
134	0.02270951939
135	0.02270951098
136	0.02270950258
137	0.02270949419
138	0.0227094858
139	0.02270947745
140	0.0227094691
141	0.02270946074
142	0.02270945241
143	0.02270944408
144	0.02270943577
145	0.02270942746
146	0.02270941914
147	0.02270941082
148	0.02270940252
149	0.02270939422
150	0.02270938593
151	0.02270937765
152	0.02270936937
153	0.0227093611
154	0.02270935284
155	0.02270934459
156	0.02270933635
157	0.02270932811
158	0.02270931988
159	0.02270931166
160	0.02270930345
161	0.02270929524
162	0.02270928704
163	0.02270927885
164	0.02270927067
165	0.0227092625
166	0.02270925433
167	0.02270924617
168	0.02270923802
169	0.02270922987
170	0.02270922174
171	0.02270921361
172	0.02270920549
173	0.02270919737
174	0.02270919737
175	0.02270919737
176	0.02270919737
177	0.02270919737
178	0.02270919737
179	0.02270919737
180	0.02270919737
181	0.02270919737
182	0.02270919737
183	0.02270919737
184	0.02270919737
185	0.02270919737
186	0.02270919737
187	0.02270919737
188	0.02270919737
189	0.02270919737
190	0.02270919737
191	0.02270919737
192	0.02270919737
193	0.02270919737
194	0.02270919737
195	0.02270919737
196	0.02270919737
197	0.02270919737
198	0.02270919737
199	0.02270919737
200	0.02270919737
201	0.02270919737
202	0.02270919737
203	0.02270919737
204	0.02270919737
205	0.02270919737
206	0.02270919737
207	0.02270919737
208	0.02270919737
209	0.02270919737
210	0.02270919737
211	0.02270919737
212	0.02270919737
213	0.02270919737
214	0.02270919737
215	0.02270919737
216	0.02270919737
217	0.02270919737
218	0.02270919737
219	0.02270919737
220	0.02270919737
221	0.02270919737
222	0.02270919737
223	0.02270919737
224	0.02270919737
225	0.02270919737
226	0.02270919737
227	0.02270919737
228	0.02270919737
229	0.02270919737
230	0.02270919737
231	0.02270919737
232	0.02270919737
233	0.02270919737
234	0.02270919737
235	0.02270919737
236	0.02270919737
237	0.02270919737
238	0.02270919737
239	0.02270919737
240	0.02270919737
241	0.02270919737
242	0.02270919737
243	0.02270919737
244	0.02270919737
245	0.02270919737
246	0.02270919737
247	0.02270919737
248	0.02270919737
249	0.02270919737
250	0.02270919737
251	0.02270919737
252	0.02270919737
253	0.02270919737
254	0.02270919737
255	0.02270919737
256	0.02270919737
257	0.02270919737
258	0.02270919737
259	0.02270919737
260	0.02270919737
261	0.02270919737
262	0.02270919737
263	0.02270919737
264	0.02270919737
265	0.02270919737
266	0.02270919737
267	0.02270919737
268	0.02270919737
269	0.02270919737
270	0.02270919737
271	0.02270919737
272	0.02270919737
273	0.02270919737
274	0.02270919737
275	0.02270919737
276	0.02270919737
277	0.02270919737
278	0.02270919737
279	0.02270919737
280	0.02270919737
281	0.02270919737
282	0.02270919737
283	0.02270919737
284	0.02270919737
285	0.02270919737
286	0.02270919737
287	0.02270919737
288	0.02270919737
289	0.02270919737
290	0.02270919737
291	0.02270919737
292	0.02270919737
293	0.02270919737
294	0.02270919737
295	0.02270919737
296	0.02270919737
297	0.02270919737
298	0.02270919737
299	0.02270919737
300	0.02270919737
301	0.02270919737
302	0.02270919737
303	0.02270919737
304	0.02270919737
305	0.02270919737
306	0.02270919737
307	0.02270919737
308	0.02270919737
309	0.02270919737
310	0.02270919737
311	0.02270919737
312	0.02270919737
313	0.02270919737
314	0.02270919737
315	0.02270919737
316	0.02270919737
317	0.02270919737
318	0.02270919737
319	0.02270919737
320	0.02270919737
321	0.02270919737
322	0.02270919737
323	0.02270919737
324	0.02270919737
325	0.02270919737
326	0.02270919737
327	0.02270919737
328	0.02270919737
329	0.02270919737
330	0.02270919737
331	0.02270919737
332	0.02270919737
333	0.02270919737
334	0.02270919737
335	0.02270919737
336	0.02270919737
337	0.02270919737
338	0.02270919737
339	0.02270919737
340	0.02270919737
341	0.02270919737
342	0.02270919737
343	0.02270919737
344	0.02270919737
345	0.02270919737
346	0.02270919737
347	0.02270919737
348	0.02270919737
349	0.02270919737
350	0.02270919737
351	0.02270919737
352	0.02270919737
353	0.02270919737
354	0.02270919737
355	0.02270919737
356	0.02270919737
357	0.02270919737
358	0.02270919737
359	0.02270919737
360	0.02270919737
361	0.02270919737
362	0.02270919737
363	0.02270919737
364	0.02270919737
365	0.02270919737
366	0.02270919737
367	0.02270919737
368	0.02270919737
369	0.02270919737
370	0.02270919737
371	0.02270919737
372	0.02270919737
373	0.02270919737
374	0.02270919737
375	0.02270919737
376	0.02270919737
377	0.02270919737
378	0.02270919737
379	0.02270919737
380	0.02270919737
381	0.02270919737
382	0.02270919737
383	0.02270919737
384	0.02270919737
385	0.02270919737
386	0.02270919737
387	0.02270919737
388	0.02270919737
389	0.02270919737
390	0.02270919737
391	0.02270919737
392	0.02270919737
393	0.02270919737
394	0.02270919737
395	0.02270919737
396	0.02270919737
397	0.02270919737
398	0.02270919737
399	0.02270919737
400	0.02270919737
401	0.02270919737
402	0.02270919737
403	0.02270919737
404	0.02270919737
405	0.02270919737
406	0.02270919737
407	0.02270919737
408	0.02270919737
409	0.02270919737
410	0.02270919737
411	0.02270919737
412	0.02270919737
413	0.02270919737
414	0.02270919737
415	0.02270919737
416	0.02270919737
417	0.02270919737
418	0.02270919737
419	0.02270919737
420	0.02270919737
421	0.02270919737
422	0.02270919737
423	0.02270919737
424	0.02270919737
425	0.02270919737
426	0.02270919737
427	0.02270919737
428	0.02270919737
429	0.02270919737
430	0.02270919737
431	0.02270919737
432	0.02270919737
433	0.02270919737
434	0.02270919737
435	0.02270919737
436	0.02270919737
437	0.02270919737
438	0.02270919737
439	0.02270919737
440	0.02270919737
441	0.02270919737
442	0.02270919737
443	0.02270919737
444	0.02270919737
445	0.02270919737
446	0.02270919737
447	0.02270919737
448	0.02270919737
449	0.02270919737
450	0.02270919737
451	0.02270919737
452	0.02270919737
453	0.02270919737
454	0.02270919737
455	0.02270919737
456	0.02270919737
457	0.02270919737
458	0.02270919737
459	0.02270919737
460	0.02270919737
461	0.02270919737
462	0.02270919737
463	0.02270919737
464	0.02270919737
465	0.02270919737
466	0.02270919737
467	0.02270919737
468	0.02270919737
469	0.02270919737
470	0.02270919737
471	0.02270919737
472	0.02270919737
473	0.02270919737
474	0.02270919737
475	0.02270919737
476	0.02270919737
477	0.02270919737
478	0.02270919737
479	0.02270919737
480	0.02270919737
481	0.02270919737
482	0.02270919737
483	0.02270919737
484	0.02270919737
485	0.02270919737
486	0.02270919737
487	0.02270919737
488	0.02270919737
489	0.02270919737
490	0.02270919737
491	0.02270919737
492	0.02270919737
493	0.02270919737
494	0.02270919737
495	0.02270919737
496	0.02270919737
497	0.02270919737
498	0.02270919737
499	0.02270919737
500	0.02270919737
501	0.02270919737
502	0.02270919737
503	0.02270919737
504	0.02270919737
505	0.02270919737
506	0.02270919737
507	0.02270919737
508	0.02270919737
509	0.02270919737
510	0.02270919737
511	0.02270919737
512	0.02270919737
513	0.02270919737
514	0.02270919737
515	0.02270919737
516	0.02270919737
517	0.02270919737
518	0.02270919737
519	0.02270919737
520	0.02270919737
521	0.02270919737
522	0.02270919737
523	0.02270919737
524	0.02270919737
525	0.02270919737
526	0.02270919737
527	0.02270919737
528	0.02270919737
529	0.02270919737
530	0.02270919737
531	0.02270919737
532	0.02270919737
533	0.02270919737
534	0.02270919737
535	0.02270919737
536	0.02270919737
537	0.02270919737
538	0.02270919737
539	0.02270919737
540	0.02270919737
541	0.02270919737
542	0.02270919737
543	0.02270919737
544	0.02270919737
545	0.02270919737
546	0.02270919737
547	0.02270919737
548	0.02270919737
549	0.02270919737
550	0.02270919737
551	0.02270919737
552	0.02270919737
553	0.02270919737
554	0.02270919737
555	0.02270919737
556	0.02270919737
557	0.02270919737
558	0.02270919737
559	0.02270919737
560	0.02270919737
561	0.02270919737
562	0.02270919737
563	0.02270919737
564	0.02270919737
565	0.02270919737
566	0.02270919737
567	0.02270919737
568	0.02270919737
569	0.02270919737
570	0.02270919737
571	0.02270919737
572	0.02270919737
573	0.02270919737
574	0.02270919737
575	0.02270919737
576	0.02270919737
577	0.02270919737
578	0.02270919737
579	0.02270919737
580	0.02270919737
581	0.02270919737
582	0.02270919737
583	0.02270919737
584	0.02270919737
585	0.02270919737
586	0.02270919737
587	0.02270919737
588	0.02270919737
589	0.02270919737
590	0.02270919737
591	0.02270919737
592	0.02270919737
593	0.02270919737
594	0.02270919737
595	0.02270919737
596	0.02270919737
597	0.02270919737
598	0.02270919737
599	0.02270919737
600	0.02270919737
601	0.02270919737
602	0.02270919737
603	0.02270919737
604	0.02270919737
605	0.02270919737
606	0.02270919737
607	0.02270919737
608	0.02270919737
609	0.02270919737
610	0.02270919737
611	0.02270919737
612	0.02270919737
613	0.02270919737
614	0.02270919737
615	0.02270919737
616	0.02270919737
617	0.02270919737
618	0.02270919737
619	0.02270919737
620	0.02270919737
621	0.02270919737
622	0.02270919737
623	0.02270919737
624	0.02270919737
625	0.02270919737
626	0.02270919737
627	0.02270919737
628	0.02270919737
629	0.02270919737
630	0.02270919737
631	0.02270919737
632	0.02270919737
633	0.02270919737
634	0.02270919737
635	0.02270919737
636	0.02270919737
637	0.02270919737
638	0.02270919737
639	0.02270919737
640	0.02270919737
641	0.02270919737
642	0.02270919737
643	0.02270919737
644	0.02270919737
645	0.02270919737
646	0.02270919737
647	0.02270919737
648	0.02270919737
649	0.02270919737
650	0.02270919737
651	0.02270919737
652	0.02270919737
653	0.02270919737
654	0.02270919737
655	0.02270919737
656	0.02270919737
657	0.02270919737
658	0.02270919737
659	0.02270919737
660	0.02270919737
661	0.02270919737
662	0.02270919737
663	0.02270919737
664	0.02270919737
665	0.02270919737
666	0.02270919737
667	0.02270919737
668	0.02270919737
669	0.02270919737
670	0.02270919737
671	0.02270919737
672	0.02270919737
673	0.02270919737
674	0.02270919737
675	0.02270919737
676	0.02270919737
677	0.02270919737
678	0.02270919737
679	0.02270919737
680	0.02270919737
681	0.02270919737
682	0.02270919737
683	0.02270919737
684	0.02270919737
685	0.02270919737
686	0.02270919737
687	0.02270919737
688	0.02270919737
689	0.02270919737
690	0.02270919737
691	0.02270919737
692	0.02270919737
693	0.02270919737
694	0.02270919737
695	0.02270919737
696	0.02270919737
697	0.02270919737
698	0.02270919737
699	0.02270919737
700	0.02270919737
701	0.02270919737
702	0.02270919737
703	0.02270919737
704	0.02270919737
705	0.02270919737
706	0.02270919737
707	0.02270919737
708	0.02270919737
709	0.02270919737
710	0.02270919737
711	0.02270919737
712	0.02270919737
713	0.02270919737
714	0.02270919737
715	0.02270919737
716	0.02270919737
717	0.02270919737
718	0.02270919737
719	0.02270919737
720	0.02270919737
721	0.02270919737
722	0.02270919737
723	0.02270919737
724	0.02270919737
725	0.02270919737
726	0.02270919737
727	0.02270919737
728	0.02270919737
729	0.02270919737
730	0.02270919737
731	0.02270919737
732	0.02270919737
733	0.02270919737
734	0.02270919737
735	0.02270919737
736	0.02270919737
737	0.02270919737
738	0.02270919737
739	0.02270919737
740	0.02270919737
741	0.02270919737
742	0.02270919737
743	0.02270919737
744	0.02270919737
745	0.02270919737
746	0.02270919737
747	0.02270919737
748	0.02270919737
749	0.02270919737
750	0.02270919737
751	0.02270919737
752	0.02270919737
753	0.02270919737
754	0.02270919737
755	0.02270919737
756	0.02270919737
757	0.02270919737
758	0.02270919737
759	0.02270919737
760	0.02270919737
761	0.02270919737
762	0.02270919737
763	0.02270919737
764	0.02270919737
765	0.02270919737
766	0.02270919737
767	0.02270919737
768	0.02270919737
769	0.02270919737
770	0.02270919737
771	0.02270919737
772	0.02270919737
773	0.02270919737
774	0.02270919737
775	0.02270919737
776	0.02270919737
777	0.02270919737
778	0.02270919737
779	0.02270919737
780	0.02270919737
781	0.02270919737
782	0.02270919737
783	0.02270919737
784	0.02270919737
785	0.02270919737
786	0.02270919737
787	0.02270919737
788	0.02270919737
789	0.02270919737
790	0.02270919737
791	0.02270919737
792	0.02270919737
793	0.02270919737
794	0.02270919737
795	0.02270919737
796	0.02270919737
797	0.02270919737
798	0.02270919737
799	0.02270919737
800	0.02270919737
801	0.02270919737
802	0.02270919737
803	0.02270919737
804	0.02270919737
805	0.02270919737
806	0.02270919737
807	0.02270919737
808	0.02270919737
809	0.02270919737
810	0.02270919737
811	0.02270919737
812	0.02270919737
813	0.02270919737
814	0.02270919737
815	0.02270919737
816	0.02270919737
817	0.02270919737
818	0.02270919737
819	0.02270919737
820	0.02270919737
821	0.02270919737
822	0.02270919737
823	0.02270919737
824	0.02270919737
825	0.02270919737
826	0.02270919737
827	0.02270919737
828	0.02270919737
829	0.02270919737
830	0.02270919737
831	0.02270919737
832	0.02270919737
833	0.02270919737
834	0.02270919737
835	0.02270919737
836	0.02270919737
837	0.02270919737
838	0.02270919737
839	0.02270919737
840	0.02270919737
841	0.02270919737
842	0.02270919737
843	0.02270919737
844	0.02270919737
845	0.02270919737
846	0.02270919737
847	0.02270919737
848	0.02270919737
849	0.02270919737
850	0.02270919737
851	0.02270919737
852	0.02270919737
853	0.02270919737
854	0.02270919737
855	0.02270919737
856	0.02270919737
857	0.02270919737
858	0.02270919737
859	0.02270919737
860	0.02270919737
861	0.02270919737
862	0.02270919737
863	0.02270919737
864	0.02270919737
865	0.02270919737
866	0.02270919737
867	0.02270919737
868	0.02270919737
869	0.02270919737
870	0.02270919737
871	0.02270919737
872	0.02270919737
873	0.02270919737
874	0.02270919737
875	0.02270919737
876	0.02270919737
877	0.02270919737
878	0.02270919737
879	0.02270919737
880	0.02270919737
881	0.02270919737
882	0.02270919737
883	0.02270919737
884	0.02270919737
885	0.02270919737
886	0.02270919737
887	0.02270919737
888	0.02270919737
889	0.02270919737
890	0.02270919737
891	0.02270919737
892	0.02270919737
893	0.02270919737
894	0.02270919737
895	0.02270919737
896	0.02270919737
897	0.02270919737
898	0.02270919737
899	0.02270919737
900	0.02270919737
901	0.02270919737
902	0.02270919737
903	0.02270919737
904	0.02270919737
905	0.02270919737
906	0.02270919737
907	0.02270919737
908	0.02270919737
909	0.02270919737
910	0.02270919737
911	0.02270919737
912	0.02270919737
913	0.02270919737
914	0.02270919737
915	0.02270919737
916	0.02270919737
917	0.02270919737
918	0.02270919737
919	0.02270919737
920	0.02270919737
921	0.02270919737
922	0.02270919737
923	0.02270919737
924	0.02270919737
925	0.02270919737
926	0.02270919737
927	0.02270919737
928	0.02270919737
929	0.02270919737
930	0.02270919737
931	0.02270919737
932	0.02270919737
933	0.02270919737
934	0.02270919737
935	0.02270919737
936	0.02270919737
937	0.02270919737
938	0.02270919737
939	0.02270919737
940	0.02270919737
941	0.02270919737
942	0.02270919737
943	0.02270919737
944	0.02270919737
945	0.02270919737
946	0.02270919737
947	0.02270919737
948	0.02270919737
949	0.02270919737
950	0.02270919737
951	0.02270919737
952	0.02270919737
953	0.02270919737
954	0.02270919737
955	0.02270919737
956	0.02270919737
957	0.02270919737
958	0.02270919737
959	0.02270919737
960	0.02270919737
961	0.02270919737
962	0.02270919737
963	0.02270919737
964	0.02270919737
965	0.02270919737
966	0.02270919737
967	0.02270919737
968	0.02270919737
969	0.02270919737
970	0.02270919737
971	0.02270919737
972	0.02270919737
973	0.02270919737
974	0.02270919737
975	0.02270919737
976	0.02270919737
977	0.02270919737
978	0.02270919737
979	0.02270919737
980	0.02270919737
981	0.02270919737
982	0.02270919737
983	0.02270919737
984	0.02270919737
985	0.02270919737
986	0.02270919737
987	0.02270919737
988	0.02270919737
989	0.02270919737
990	0.02270919737
991	0.02270919737
992	0.02270919737
993	0.02270919737
994	0.02270919737
995	0.02270919737
996	0.02270919737
997	0.02270919737
998	0.02270919737
999	0.02270919737
